2850, 7
1394, 7
3106, 6
2592, 3
616, 2
1140, 7
115, 7
2607, 3
3940, 2
3939, 6
814, 7
1903, 6
3943, 6
3173, 6
3683, 2
3949, 6
3940, 2
3939, 6
1389, 7
1390, 6
1071, 7
1071, 6
301, 3
1365, 3
2164, 3
1127, 3
2906, 6
1610, 4
1073, 6
1848, 4
356, 6
1345, 3
3183, 6
2678, 7
343, 7
2407, 3
370, 7
301, 5
584, 6
580, 7
3377, 4
1111, 3
885, 4
1089, 5
3941, 2
1129, 6
1087, 7
1395, 7
61, 7
1135, 6
883, 6
3177, 6
884, 7
3937, 5
105, 7
556, 2
34, 2
613, 7
879, 7
1394, 7
869, 6
3945, 5
1058, 6
2592, 3
612, 2
3939, 6
1389, 7
1390, 6
1082, 7
301, 3
1365, 3
2164, 3
1127, 3
2906, 6
1610, 4
1073, 6
1848, 4
356, 6
1345, 3
3183, 6
2678, 7
343, 7
2407, 3
370, 7
301, 5
584, 6
580, 7
3377, 4
1111, 3
885, 4
1089, 5
637, 2
